{
	"info": {
		"_postman_id": "ad033b3f-dc08-4f2a-8b55-eace7af7a83a",
		"name": "postman_collection",
		"schema": "https://schema.getpostman.com/json/collection/v2.1.0/collection.json"
	},
	"item": [
		{
			"name": "User",
			"item": [
				{
					"name": "Create User",
					"event": [
						{
							"listen": "test",
							"script": {
								"id": "2d705eb0-eb4a-43fb-b3d4-9cadf9648f81",
								"exec": [
									"pm.test(\"Status code is 200\", function () {\r",
									"    pm.response.to.have.status(200);\r",
									"});"
								],
								"type": "text/javascript"
							}
						}
					],
					"request": {
						"method": "POST",
						"header": [],
						"body": {
							"mode": "raw",
							"raw": "{\r\n    \"name\": \"Higles Souza\",\r\n    \"email\": \"higlessouza@gmail.com\",\r\n    \"userPublicKey\": \"-----BEGIN PUBLIC KEY-----\\nMIIBIjANBgkqhkiG9w0BAQEFAAOCAQ8AMIIBCgKCAQEAmkkV/xYSQFh+p7M0oW64\\n0xMtKWRjbVqOt9q3k2GpBGXFWQBEkl/s1QBlqfd3VP4vds8gov9Ubc/aUrgl8NjW\\nLG+WWbZyd8VjYzoNdzmLuILzhfM6cnx6tyQVDSpCWL41/wLoZtGbnr6qDQzYZ/jv\\n/Mzh29RTTJR8uyXKzhBJ85uRjYfNF9EIlkWpwKFUGKEqtTfIRb7xaKSjKPcc2O4h\\nknMHuYl7YYZ/+GiCiusdwM0QnspDRwkfC9602OXuR+x9xffLJ9c7L0HBgLYLgYlM\\neBOTS+DNGlMSstV7iIvcb83S2VOXoJqXO682XyHx/nE88uHKI0t3OlYR+L80nv+f\\nEwIDAQAB\\n-----END PUBLIC KEY-----\"\r\n}",
							"options": {
								"raw": {
									"language": "json"
								}
							}
						},
						"url": {
							"raw": "localhost:8080/api/user/new/",
							"host": [
								"localhost"
							],
							"port": "8080",
							"path": [
								"api",
								"user",
								"new",
								""
							]
						}
					},
					"response": []
				},
				{
					"name": "Create User 2",
					"event": [
						{
							"listen": "test",
							"script": {
								"id": "6ff237d0-abde-4f8d-bf9a-dca848e70d31",
								"exec": [
									"pm.test(\"Status code is 200\", function () {\r",
									"    pm.response.to.have.status(200);\r",
									"});\r",
									""
								],
								"type": "text/javascript"
							}
						}
					],
					"request": {
						"method": "POST",
						"header": [],
						"body": {
							"mode": "raw",
							"raw": "{\r\n    \"name\": \"Homem de ferro\",\r\n    \"email\": \"stark@gmail.com\",\r\n    \"userPublicKey\": \"-----BEGIN PUBLIC KEY-----\\nMIIBIjANBgkqhkiG9w0BAQEFAAOCAQ8AMIIBCgKCAQEAmkkV/xYSQFh+p7M0oW64\\n0xMtKWRjbVqOt9q3k2GpBGXFWQBEkl/s1QBlqfd3VP4vds8gov9Ubc/aUrgl8NjW\\nLG+WWbZyd8VjYzoNdzmLuILzhfM6cnx6tyQVDSpCWL41/wLoZtGbnr6qDQzYZ/jv\\n/Mzh29RTTJR8uyXKzhBJ85uRjYfNF9EIlkWpwKFUGKEqtTfIRb7xaKSjKPcc2O4h\\nknMHuYl7YYZ/+GiCiusdwM0QnspDRwkfC9602OXuR+x9xffLJ9c7L0HBgLYLgYlM\\neBOTS+DNGlMSstV7iIvcb83S2VOXoJqXO682XyHx/nE88uHKI0t3OlYR+L80nv+f\\nEwIDAQAB\\n-----END PUBLIC KEY-----\"\r\n}",
							"options": {
								"raw": {
									"language": "json"
								}
							}
						},
						"url": {
							"raw": "localhost:8080/api/user/new/",
							"host": [
								"localhost"
							],
							"port": "8080",
							"path": [
								"api",
								"user",
								"new",
								""
							]
						}
					},
					"response": []
				},
				{
					"name": "Update User",
					"event": [
						{
							"listen": "test",
							"script": {
								"id": "68d3369b-e510-4d9b-9416-182361f92cd2",
								"exec": [
									"pm.test(\"Status code is 200\", function () {\r",
									"    pm.response.to.have.status(200);\r",
									"});\r",
									"\r",
									"pm.test(\"Response time is less than 200ms\", function () {\r",
									"    pm.expect(pm.response.responseTime).to.be.below(200);\r",
									"});"
								],
								"type": "text/javascript"
							}
						}
					],
					"request": {
						"method": "PUT",
						"header": [],
						"body": {
							"mode": "raw",
							"raw": "{\r\n     \"id\": 1,\r\n    \"name\": \"Higles Santos\",\r\n    \"email\":\"Higles@hotmail.com\" \r\n}",
							"options": {
								"raw": {
									"language": "json"
								}
							}
						},
						"url": {
							"raw": "localhost:8080/api/user/update/",
							"host": [
								"localhost"
							],
							"port": "8080",
							"path": [
								"api",
								"user",
								"update",
								""
							]
						}
					},
					"response": []
				},
				{
					"name": "Get User By Id",
					"event": [
						{
							"listen": "test",
							"script": {
								"id": "e7970cfd-4634-4490-9626-b53718241b80",
								"exec": [
									"pm.test(\"Status code is 200\", function () {\r",
									"    pm.response.to.have.status(200);\r",
									"});\r",
									"\r",
									"pm.test(\"Response time is less than 200ms\", function () {\r",
									"    pm.expect(pm.response.responseTime).to.be.below(200);\r",
									"});"
								],
								"type": "text/javascript"
							}
						}
					],
					"request": {
						"method": "GET",
						"header": [],
						"url": {
							"raw": "localhost:8080/api/user/1",
							"host": [
								"localhost"
							],
							"port": "8080",
							"path": [
								"api",
								"user",
								"1"
							]
						}
					},
					"response": []
				},
				{
					"name": "Find All Users",
					"event": [
						{
							"listen": "test",
							"script": {
								"id": "004ce9a2-e85a-4b43-a957-a2c9985a7e1c",
								"exec": [
									"pm.test(\"Status code is 200\", function () {\r",
									"    pm.response.to.have.status(200);\r",
									"});\r",
									"\r",
									"pm.test(\"Response time is less than 200ms\", function () {\r",
									"    pm.expect(pm.response.responseTime).to.be.below(200);\r",
									"});\r",
									"\r",
									""
								],
								"type": "text/javascript"
							}
						}
					],
					"request": {
						"method": "GET",
						"header": [],
						"url": {
							"raw": "localhost:8080/api/user/find-all/",
							"host": [
								"localhost"
							],
							"port": "8080",
							"path": [
								"api",
								"user",
								"find-all",
								""
							]
						}
					},
					"response": []
				},
				{
					"name": "Delete User",
					"event": [
						{
							"listen": "test",
							"script": {
								"id": "1e23dd86-2fd7-4d59-882b-87da87ecb536",
								"exec": [
									"pm.test(\"Status code is 200\", function () {\r",
									"    pm.response.to.have.status(200);\r",
									"});\r",
									"\r",
									"pm.test(\"Response time is less than 200ms\", function () {\r",
									"    pm.expect(pm.response.responseTime).to.be.below(200);\r",
									"});"
								],
								"type": "text/javascript"
							}
						}
					],
					"request": {
						"method": "DELETE",
						"header": [],
						"body": {
							"mode": "raw",
							"raw": "",
							"options": {
								"raw": {
									"language": "json"
								}
							}
						},
						"url": {
							"raw": "localhost:8080/api/user/delete/2",
							"host": [
								"localhost"
							],
							"port": "8080",
							"path": [
								"api",
								"user",
								"delete",
								"2"
							]
						}
					},
					"response": []
				}
			],
			"protocolProfileBehavior": {}
		},
		{
			"name": "Result",
			"item": [
				{
					"name": "New Result",
					"event": [
						{
							"listen": "test",
							"script": {
								"id": "e0c2b02f-d6e8-402a-8bfc-7ef63af388ff",
								"exec": [
									"pm.test(\"Status code is 200\", function () {\r",
									"    pm.response.to.have.status(200);\r",
									"});\r",
									"\r",
									"pm.test(\"Response time is less than 200ms\", function () {\r",
									"    pm.expect(pm.response.responseTime).to.be.below(200);\r",
									"});\r",
									"\r",
									""
								],
								"type": "text/javascript"
							}
						}
					],
					"request": {
						"method": "POST",
						"header": [],
						"body": {
							"mode": "raw",
							"raw": "{\r\n    \"digit\": \"9875\",\r\n    \"multiplier\": 4\r\n}",
							"options": {
								"raw": {
									"language": "json"
								}
							}
						},
						"url": {
							"raw": "localhost:8080/api/result/new",
							"host": [
								"localhost"
							],
							"port": "8080",
							"path": [
								"api",
								"result",
								"new"
							],
							"query": [
								{
									"key": "digit",
									"value": "11",
									"disabled": true
								}
							]
						}
					},
					"response": []
				},
				{
					"name": "New Result with User",
					"event": [
						{
							"listen": "test",
							"script": {
								"id": "471b786f-0c0a-47ab-aa0f-e101fb93f2d1",
								"exec": [
									"pm.test(\"Status code is 200\", function () {\r",
									"    pm.response.to.have.status(200);\r",
									"});\r",
									"\r",
									"pm.test(\"Response time is less than 200ms\", function () {\r",
									"    pm.expect(pm.response.responseTime).to.be.below(200);\r",
									"});\r",
									"\r",
									""
								],
								"type": "text/javascript"
							}
						}
					],
					"request": {
						"method": "POST",
						"header": [],
						"body": {
							"mode": "raw",
							"raw": "{\r\n    \"digit\": \"9875\",\r\n    \"multiplier\": 4,\r\n    \"user\": {\r\n        \"id\": 1\r\n    }\r\n}",
							"options": {
								"raw": {
									"language": "json"
								}
							}
						},
						"url": {
							"raw": "localhost:8080/api/result/new",
							"host": [
								"localhost"
							],
							"port": "8080",
							"path": [
								"api",
								"result",
								"new"
							]
						}
					},
					"response": []
				}
			],
			"protocolProfileBehavior": {}
		},
		{
			"name": "User Exception",
			"item": [
				{
					"name": "Create User Error Public Key",
					"event": [
						{
							"listen": "test",
							"script": {
								"id": "237d84cb-4475-4a1a-8188-73ce13cfbbca",
								"exec": [
									"pm.test(\"Status code is 400, bad request\", function () {\r",
									"    pm.response.to.have.status(400);\r",
									"});\r",
									"\r",
									"pm.test(\"Response time is less than 200ms\", function () {\r",
									"    pm.expect(pm.response.responseTime).to.be.below(200);\r",
									"});\r",
									"\r",
									""
								],
								"type": "text/javascript"
							}
						}
					],
					"request": {
						"method": "POST",
						"header": [],
						"body": {
							"mode": "raw",
							"raw": "{\r\n    \"name\": \"Higles Souza\",\r\n    \"email\": \"higlessouza@gmail.com\",\r\n    \"userPublicKey\": \"-----INVALID PUBLIC KEY-----\\nMIIBIjANBgkqhkiG9w0BAQEFAAOCAQ8AMIIBCgKCAQEAmkkV/xYSQFh+p7M0oW64\\n0xMtKWRjbVqOt9q3k2GpBGXFWQBEkl/s1QBlqfd3VP4vds8gov9Ubc/aUrgl8NjW\\nLG+WWbZyd8VjYzoNdzmLuILzhfM6cnx6tyQVDSpCWL41/wLoZtGbnr6qDQzYZ/jv\\n/Mzh29RTTJR8uyXKzhBJ85uRjYfNF9EIlkWpwKFUGKEqtTfIRb7xaKSjKPcc2O4h\\nknMHuYl7YYZ/+GiCiusdwM0QnspDRwkfC9602OXuR+x9xffLJ9c7L0HBgLYLgYlM\\neBOTS+DNGlMSstV7iIvcb83S2VOXoJqXO682XyHx/nE88uHKI0t3OlYR+L80nv+f\\nEwIDAQAB\\n-----END INVALID PUBLIC KEY-----\"\r\n}",
							"options": {
								"raw": {
									"language": "json"
								}
							}
						},
						"url": {
							"raw": "localhost:8080/api/user/new/",
							"host": [
								"localhost"
							],
							"port": "8080",
							"path": [
								"api",
								"user",
								"new",
								""
							]
						}
					},
					"response": []
				},
				{
					"name": "Get User By Id User Not Found",
					"event": [
						{
							"listen": "test",
							"script": {
								"id": "636760a6-042c-489b-a976-e1df8e84f589",
								"exec": [
									"pm.test(\"Status code is 404, Not founf\", function () {\r",
									"    pm.response.to.have.status(404);\r",
									"});\r",
									"\r",
									"pm.test(\"Response time is less than 200ms\", function () {\r",
									"    pm.expect(pm.response.responseTime).to.be.below(200);\r",
									"});\r",
									"\r",
									""
								],
								"type": "text/javascript"
							}
						}
					],
					"request": {
						"method": "GET",
						"header": [],
						"url": {
							"raw": "localhost:8080/api/user/1977",
							"host": [
								"localhost"
							],
							"port": "8080",
							"path": [
								"api",
								"user",
								"1977"
							]
						}
					},
					"response": []
				},
				{
					"name": "Delete User Not Found",
					"event": [
						{
							"listen": "test",
							"script": {
								"id": "49a20d70-e19b-432c-8ba0-937bc2b35fea",
								"exec": [
									"pm.test(\"Status code is 404, Not founf\", function () {\r",
									"    pm.response.to.have.status(404);\r",
									"});\r",
									"\r",
									"pm.test(\"Response time is less than 200ms\", function () {\r",
									"    pm.expect(pm.response.responseTime).to.be.below(200);\r",
									"});\r",
									"\r",
									""
								],
								"type": "text/javascript"
							}
						}
					],
					"request": {
						"method": "DELETE",
						"header": [],
						"body": {
							"mode": "raw",
							"raw": "",
							"options": {
								"raw": {
									"language": "json"
								}
							}
						},
						"url": {
							"raw": "localhost:8080/api/user/delete/1977",
							"host": [
								"localhost"
							],
							"port": "8080",
							"path": [
								"api",
								"user",
								"delete",
								"1977"
							]
						}
					},
					"response": []
				}
			],
			"protocolProfileBehavior": {}
		},
		{
			"name": "Result Exception",
			"item": [
				{
					"name": "New Result Multiple Negative",
					"event": [
						{
							"listen": "test",
							"script": {
								"id": "7cba1ebc-8ff3-49ca-b9d8-a07e1413d453",
								"exec": [
									"pm.test(\"Status code is 400, bad request\", function () {\r",
									"    pm.response.to.have.status(400);\r",
									"});\r",
									"\r",
									"pm.test(\"Response time is less than 200ms\", function () {\r",
									"    pm.expect(pm.response.responseTime).to.be.below(200);\r",
									"});\r",
									"\r",
									""
								],
								"type": "text/javascript"
							}
						}
					],
					"request": {
						"method": "POST",
						"header": [],
						"body": {
							"mode": "raw",
							"raw": "{\r\n    \"digit\": \"9875\",\r\n    \"multiplier\": -1\r\n}",
							"options": {
								"raw": {
									"language": "json"
								}
							}
						},
						"url": {
							"raw": "localhost:8080/api/result/new",
							"host": [
								"localhost"
							],
							"port": "8080",
							"path": [
								"api",
								"result",
								"new"
							],
							"query": [
								{
									"key": "digit",
									"value": "11",
									"disabled": true
								}
							]
						}
					},
					"response": []
				},
				{
					"name": "New Result Digit Invalid",
					"event": [
						{
							"listen": "test",
							"script": {
								"id": "2769c1ee-9ee2-45a6-b5a3-d00ffa1e55b7",
								"exec": [
									"pm.test(\"Status code is 400, bad request\", function () {\r",
									"    pm.response.to.have.status(400);\r",
									"});\r",
									"\r",
									"pm.test(\"Response time is less than 200ms\", function () {\r",
									"    pm.expect(pm.response.responseTime).to.be.below(200);\r",
									"});\r",
									""
								],
								"type": "text/javascript"
							}
						}
					],
					"request": {
						"method": "POST",
						"header": [],
						"body": {
							"mode": "raw",
							"raw": "{\r\n    \"digit\": \"95Test\",\r\n    \"multiplier\": 4\r\n}",
							"options": {
								"raw": {
									"language": "json"
								}
							}
						},
						"url": {
							"raw": "localhost:8080/api/result/new",
							"host": [
								"localhost"
							],
							"port": "8080",
							"path": [
								"api",
								"result",
								"new"
							],
							"query": [
								{
									"key": "digit",
									"value": "11",
									"disabled": true
								}
							]
						}
					},
					"response": []
				},
				{
					"name": "New Result with User Not Found",
					"event": [
						{
							"listen": "test",
							"script": {
								"id": "e7b9a7fd-2837-4b71-86c2-09990db6c0bd",
								"exec": [
									"pm.test(\"Status code is 404, not found\", function () {\r",
									"    pm.response.to.have.status(404);\r",
									"});\r",
									"\r",
									"pm.test(\"Response time is less than 200ms\", function () {\r",
									"    pm.expect(pm.response.responseTime).to.be.below(200);\r",
									"});\r",
									""
								],
								"type": "text/javascript"
							}
						}
					],
					"request": {
						"method": "POST",
						"header": [],
						"body": {
							"mode": "raw",
							"raw": "{\r\n    \"digit\": \"9875\",\r\n    \"multiplier\": 4,\r\n    \"user\": {\r\n        \"id\": 19997\r\n    }\r\n}",
							"options": {
								"raw": {
									"language": "json"
								}
							}
						},
						"url": {
							"raw": "localhost:8080/api/result/new",
							"host": [
								"localhost"
							],
							"port": "8080",
							"path": [
								"api",
								"result",
								"new"
							]
						}
					},
					"response": []
				}
			],
			"protocolProfileBehavior": {}
		}
	],
	"protocolProfileBehavior": {}
}